chapter-3-visualizing-sentiment
…
# Count by book & sentiment
books_sent_count <- all_books %>%
  # Inner join to nrc lexicon
  inner_join(nrc, by = c("term" = "word")) %>% 
  # Keep only positive or negative
  filter(grepl("positive|negative", sentiment)) %>% 
  # Count by book and by sentiment
  count(book, sentiment)
  
# Review entire object
books_sent_count

## # A tibble: 22 x 3
##    book           sentiment     n
##    <chr>          <chr>     <int>
##  1 bartleby       negative    537
##  2 bartleby       positive    864
##  3 confidence_man negative   3561
##  4 confidence_man positive   5899
##  5 ct_yankee      negative   4048
##  6 ct_yankee      positive   6154
##  7 hamlet         negative   1677
##  8 hamlet         positive   2250
##  9 huck_finn      negative   2471
## 10 huck_finn      positive   3544
## #  with 12 more rows
…
